…
``` r
clean_data_basic |> count(year, age_group) |> arrange(year, age_group)
```

    ## # A tibble: 132 × 3
    ##    year    age_group     n
    ##    <chr>   <fct>     <int>
    ##  1 CY 2013 Age <1        5
    ##  2 CY 2013 Age 1–2       6
    ##  3 CY 2013 Age 3–5       6
    ##  4 CY 2013 Age 6–9       7
    ##  5 CY 2013 Age 10–14     7
    ##  6 CY 2013 Age 15–18     6
    ##  7 CY 2013 Age 19–20     6
    ##  8 CY 2013 Age 21–34     6
    ##  9 CY 2013 Age 35–44     6
    ## 10 CY 2013 Age 45–64     6
    ## # ℹ 122 more rows
…
